^C:\USERS\XUXIC\ONEDRIVE\UIT\@PROJECTS\CG-CS113\DRAWLINE\LINE.CPP|C:\USERS\XUXIC\ONEDRIVE\UIT\@PROJECTS\CG-CS113\DRAWLINE\MAIN.CPP
C:\USERS\XUXIC\ONEDRIVE\UIT\@PROJECTS\CG-CS113\DRAWLINE\DEBUG\VC140.PDB
C:\USERS\XUXIC\ONEDRIVE\UIT\@PROJECTS\CG-CS113\DRAWLINE\DEBUG\VC140.IDB
C:\USERS\XUXIC\ONEDRIVE\UIT\@PROJECTS\CG-CS113\DRAWLINE\DEBUG\LINE.OBJ
C:\USERS\XUXIC\ONEDRIVE\UIT\@PROJECTS\CG-CS113\DRAWLINE\DEBUG\MAIN.OBJ
^C:\USERS\XUXIC\ONEDRIVE\UIT\@PROJECTS\CG-CS113\DRAWLINE\LINE.CPP
C:\USERS\XUXIC\ONEDRIVE\UIT\@PROJECTS\CG-CS113\DRAWLINE\DEBUG\VC140.PDB
C:\USERS\XUXIC\ONEDRIVE\UIT\@PROJECTS\CG-CS113\DRAWLINE\DEBUG\VC140.IDB
C:\USERS\XUXIC\ONEDRIVE\UIT\@PROJECTS\CG-CS113\DRAWLINE\DEBUG\LINE.OBJ
^C:\USERS\XUXIC\ONEDRIVE\UIT\@PROJECTS\CG-CS113\DRAWLINE\MAIN.CPP
C:\USERS\XUXIC\ONEDRIVE\UIT\@PROJECTS\CG-CS113\DRAWLINE\DEBUG\VC140.PDB
C:\USERS\XUXIC\ONEDRIVE\UIT\@PROJECTS\CG-CS113\DRAWLINE\DEBUG\VC140.IDB
C:\USERS\XUXIC\ONEDRIVE\UIT\@PROJECTS\CG-CS113\DRAWLINE\DEBUG\MAIN.OBJ
^C:\USERS\XUXIC\ONEDRIVE\UIT\@PROJECTS\CG-CS113\DRAWLINE\CIRCLE.CPP|C:\USERS\XUXIC\ONEDRIVE\UIT\@PROJECTS\CG-CS113\DRAWLINE\LINE.CPP|C:\USERS\XUXIC\ONEDRIVE\UIT\@PROJECTS\CG-CS113\DRAWLINE\MAIN.CPP
C:\USERS\XUXIC\ONEDRIVE\UIT\@PROJECTS\CG-CS113\DRAWLINE\DEBUG\VC140.PDB
C:\USERS\XUXIC\ONEDRIVE\UIT\@PROJECTS\CG-CS113\DRAWLINE\DEBUG\VC140.IDB
C:\USERS\XUXIC\ONEDRIVE\UIT\@PROJECTS\CG-CS113\DRAWLINE\DEBUG\CIRCLE.OBJ
C:\USERS\XUXIC\ONEDRIVE\UIT\@PROJECTS\CG-CS113\DRAWLINE\DEBUG\LINE.OBJ
^C:\USERS\XUXIC\ONEDRIVE\UIT\@PROJECTS\CG-CS113\DRAWLINE\CIRCLE.CPP
C:\USERS\XUXIC\ONEDRIVE\UIT\@PROJECTS\CG-CS113\DRAWLINE\DEBUG\VC140.PDB
C:\USERS\XUXIC\ONEDRIVE\UIT\@PROJECTS\CG-CS113\DRAWLINE\DEBUG\VC140.IDB
C:\USERS\XUXIC\ONEDRIVE\UIT\@PROJECTS\CG-CS113\DRAWLINE\DEBUG\CIRCLE.OBJ
^C:\USERS\XUXIC\ONEDRIVE\UIT\@PROJECTS\CG-CS113\DRAWLINE\CIRCLE.CPP|C:\USERS\XUXIC\ONEDRIVE\UIT\@PROJECTS\CG-CS113\DRAWLINE\LINE.CPP
C:\USERS\XUXIC\ONEDRIVE\UIT\@PROJECTS\CG-CS113\DRAWLINE\DEBUG\VC140.PDB
C:\USERS\XUXIC\ONEDRIVE\UIT\@PROJECTS\CG-CS113\DRAWLINE\DEBUG\VC140.IDB
C:\USERS\XUXIC\ONEDRIVE\UIT\@PROJECTS\CG-CS113\DRAWLINE\DEBUG\CIRCLE.OBJ
C:\USERS\XUXIC\ONEDRIVE\UIT\@PROJECTS\CG-CS113\DRAWLINE\DEBUG\LINE.OBJ
^C:\USERS\XUXIC\ONEDRIVE\UIT\@PROJECTS\CG-CS113\DRAWLINE\ELLIPSE.CPP|C:\USERS\XUXIC\ONEDRIVE\UIT\@PROJECTS\CG-CS113\DRAWLINE\LINE.CPP|C:\USERS\XUXIC\ONEDRIVE\UIT\@PROJECTS\CG-CS113\DRAWLINE\MAIN.CPP
C:\USERS\XUXIC\ONEDRIVE\UIT\@PROJECTS\CG-CS113\DRAWLINE\DEBUG\VC140.PDB
C:\USERS\XUXIC\ONEDRIVE\UIT\@PROJECTS\CG-CS113\DRAWLINE\DEBUG\VC140.IDB
C:\USERS\XUXIC\ONEDRIVE\UIT\@PROJECTS\CG-CS113\DRAWLINE\DEBUG\ELLIPSE.OBJ
C:\USERS\XUXIC\ONEDRIVE\UIT\@PROJECTS\CG-CS113\DRAWLINE\DEBUG\LINE.OBJ
C:\USERS\XUXIC\ONEDRIVE\UIT\@PROJECTS\CG-CS113\DRAWLINE\DEBUG\MAIN.OBJ
^C:\USERS\XUXIC\ONEDRIVE\UIT\@PROJECTS\CG-CS113\DRAWLINE\ELLIPSE.CPP
C:\USERS\XUXIC\ONEDRIVE\UIT\@PROJECTS\CG-CS113\DRAWLINE\DEBUG\VC140.PDB
C:\USERS\XUXIC\ONEDRIVE\UIT\@PROJECTS\CG-CS113\DRAWLINE\DEBUG\VC140.IDB
C:\USERS\XUXIC\ONEDRIVE\UIT\@PROJECTS\CG-CS113\DRAWLINE\DEBUG\ELLIPSE.OBJ
^C:\USERS\XUXIC\ONEDRIVE\UIT\@PROJECTS\CG-CS113\DRAWLINE\ELLIPSE.CPP|C:\USERS\XUXIC\ONEDRIVE\UIT\@PROJECTS\CG-CS113\DRAWLINE\MAIN.CPP
C:\USERS\XUXIC\ONEDRIVE\UIT\@PROJECTS\CG-CS113\DRAWLINE\DEBUG\VC140.PDB
C:\USERS\XUXIC\ONEDRIVE\UIT\@PROJECTS\CG-CS113\DRAWLINE\DEBUG\VC140.IDB
C:\USERS\XUXIC\ONEDRIVE\UIT\@PROJECTS\CG-CS113\DRAWLINE\DEBUG\ELLIPSE.OBJ
C:\USERS\XUXIC\ONEDRIVE\UIT\@PROJECTS\CG-CS113\DRAWLINE\DEBUG\MAIN.OBJ
^C:\USERS\XUXIC\ONEDRIVE\UIT\@PROJECTS\CG-CS113\DRAWLINE\LINE.CPP|C:\USERS\XUXIC\ONEDRIVE\UIT\@PROJECTS\CG-CS113\DRAWLINE\MAIN.CPP|C:\USERS\XUXIC\ONEDRIVE\UIT\@PROJECTS\CG-CS113\DRAWLINE\PARABOL.CPP
C:\USERS\XUXIC\ONEDRIVE\UIT\@PROJECTS\CG-CS113\DRAWLINE\DEBUG\VC140.PDB
C:\USERS\XUXIC\ONEDRIVE\UIT\@PROJECTS\CG-CS113\DRAWLINE\DEBUG\VC140.IDB
C:\USERS\XUXIC\ONEDRIVE\UIT\@PROJECTS\CG-CS113\DRAWLINE\DEBUG\PARABOL.OBJ
C:\USERS\XUXIC\ONEDRIVE\UIT\@PROJECTS\CG-CS113\DRAWLINE\DEBUG\LINE.OBJ
C:\USERS\XUXIC\ONEDRIVE\UIT\@PROJECTS\CG-CS113\DRAWLINE\DEBUG\MAIN.OBJ
^C:\USERS\XUXIC\ONEDRIVE\UIT\@PROJECTS\CG-CS113\DRAWLINE\PARABOL.CPP
C:\USERS\XUXIC\ONEDRIVE\UIT\@PROJECTS\CG-CS113\DRAWLINE\DEBUG\VC140.PDB
C:\USERS\XUXIC\ONEDRIVE\UIT\@PROJECTS\CG-CS113\DRAWLINE\DEBUG\VC140.IDB
C:\USERS\XUXIC\ONEDRIVE\UIT\@PROJECTS\CG-CS113\DRAWLINE\DEBUG\PARABOL.OBJ
^C:\USERS\XUXIC\ONEDRIVE\UIT\@PROJECTS\CG-CS113\DRAWLINE\MAIN.CPP|C:\USERS\XUXIC\ONEDRIVE\UIT\@PROJECTS\CG-CS113\DRAWLINE\PARABOL.CPP
C:\USERS\XUXIC\ONEDRIVE\UIT\@PROJECTS\CG-CS113\DRAWLINE\DEBUG\VC140.PDB
C:\USERS\XUXIC\ONEDRIVE\UIT\@PROJECTS\CG-CS113\DRAWLINE\DEBUG\VC140.IDB
C:\USERS\XUXIC\ONEDRIVE\UIT\@PROJECTS\CG-CS113\DRAWLINE\DEBUG\MAIN.OBJ
C:\USERS\XUXIC\ONEDRIVE\UIT\@PROJECTS\CG-CS113\DRAWLINE\DEBUG\PARABOL.OBJ
^C:\USERS\XUXIC\ONEDRIVE\UIT\@PROJECTS\CG-CS113\DRAWLINE\CIRCLE.CPP|C:\USERS\XUXIC\ONEDRIVE\UIT\@PROJECTS\CG-CS113\DRAWLINE\ELLIPSE.CPP|C:\USERS\XUXIC\ONEDRIVE\UIT\@PROJECTS\CG-CS113\DRAWLINE\LINE.CPP|C:\USERS\XUXIC\ONEDRIVE\UIT\@PROJECTS\CG-CS113\DRAWLINE\MAIN.CPP|C:\USERS\XUXIC\ONEDRIVE\UIT\@PROJECTS\CG-CS113\DRAWLINE\PARABOL.CPP
C:\USERS\XUXIC\ONEDRIVE\UIT\@PROJECTS\CG-CS113\DRAWLINE\DEBUG\VC140.PDB
C:\USERS\XUXIC\ONEDRIVE\UIT\@PROJECTS\CG-CS113\DRAWLINE\DEBUG\VC140.IDB
C:\USERS\XUXIC\ONEDRIVE\UIT\@PROJECTS\CG-CS113\DRAWLINE\DEBUG\CIRCLE.OBJ
C:\USERS\XUXIC\ONEDRIVE\UIT\@PROJECTS\CG-CS113\DRAWLINE\DEBUG\MAIN.OBJ
^C:\USERS\XUXIC\ONEDRIVE\UIT\@PROJECTS\CG-CS113\DRAWLINE\CLIPPING.CPP|C:\USERS\XUXIC\ONEDRIVE\UIT\@PROJECTS\CG-CS113\DRAWLINE\DRAWPOLYGON.CPP
C:\USERS\XUXIC\ONEDRIVE\UIT\@PROJECTS\CG-CS113\DRAWLINE\DEBUG\VC140.PDB
C:\USERS\XUXIC\ONEDRIVE\UIT\@PROJECTS\CG-CS113\DRAWLINE\DEBUG\VC140.IDB
C:\USERS\XUXIC\ONEDRIVE\UIT\@PROJECTS\CG-CS113\DRAWLINE\DEBUG\DRAWPOLYGON.OBJ
^C:\USERS\XUXIC\ONEDRIVE\UIT\@PROJECTS\CG-CS113\DRAWLINE\CLIPPING.CPP
C:\USERS\XUXIC\ONEDRIVE\UIT\@PROJECTS\CG-CS113\DRAWLINE\DEBUG\VC140.PDB
C:\USERS\XUXIC\ONEDRIVE\UIT\@PROJECTS\CG-CS113\DRAWLINE\DEBUG\VC140.IDB
C:\USERS\XUXIC\ONEDRIVE\UIT\@PROJECTS\CG-CS113\DRAWLINE\DEBUG\CLIPPING.OBJ
^C:\USERS\XUXIC\ONEDRIVE\UIT\@PROJECTS\CG-CS113\DRAWLINE\DRAWPOLYGON.CPP
C:\USERS\XUXIC\ONEDRIVE\UIT\@PROJECTS\CG-CS113\DRAWLINE\DEBUG\VC140.PDB
C:\USERS\XUXIC\ONEDRIVE\UIT\@PROJECTS\CG-CS113\DRAWLINE\DEBUG\VC140.IDB
C:\USERS\XUXIC\ONEDRIVE\UIT\@PROJECTS\CG-CS113\DRAWLINE\DEBUG\DRAWPOLYGON.OBJ
^C:\USERS\XUXIC\ONEDRIVE\UIT\@PROJECTS\CG-CS113\DRAWLINE\CLIPPING.CPP|C:\USERS\XUXIC\ONEDRIVE\UIT\@PROJECTS\CG-CS113\DRAWLINE\MAIN.CPP
C:\USERS\XUXIC\ONEDRIVE\UIT\@PROJECTS\CG-CS113\DRAWLINE\DEBUG\VC140.PDB
C:\USERS\XUXIC\ONEDRIVE\UIT\@PROJECTS\CG-CS113\DRAWLINE\DEBUG\VC140.IDB
C:\USERS\XUXIC\ONEDRIVE\UIT\@PROJECTS\CG-CS113\DRAWLINE\DEBUG\CLIPPING.OBJ
C:\USERS\XUXIC\ONEDRIVE\UIT\@PROJECTS\CG-CS113\DRAWLINE\DEBUG\MAIN.OBJ
^C:\USERS\XUXIC\ONEDRIVE\UIT\@PROJECTS\CG-CS113\DRAWLINE\DRAWPOLYGON.CPP|C:\USERS\XUXIC\ONEDRIVE\UIT\@PROJECTS\CG-CS113\DRAWLINE\MAIN.CPP
C:\USERS\XUXIC\ONEDRIVE\UIT\@PROJECTS\CG-CS113\DRAWLINE\DEBUG\VC140.PDB
C:\USERS\XUXIC\ONEDRIVE\UIT\@PROJECTS\CG-CS113\DRAWLINE\DEBUG\VC140.IDB
C:\USERS\XUXIC\ONEDRIVE\UIT\@PROJECTS\CG-CS113\DRAWLINE\DEBUG\DRAWPOLYGON.OBJ
C:\USERS\XUXIC\ONEDRIVE\UIT\@PROJECTS\CG-CS113\DRAWLINE\DEBUG\MAIN.OBJ
^C:\USERS\XUXIC\ONEDRIVE\UIT\@PROJECTS\CG-CS113\DRAWLINE\CLIPPING.CPP|C:\USERS\XUXIC\ONEDRIVE\UIT\@PROJECTS\CG-CS113\DRAWLINE\FILLCOLOR.CPP|C:\USERS\XUXIC\ONEDRIVE\UIT\@PROJECTS\CG-CS113\DRAWLINE\MAIN.CPP
C:\USERS\XUXIC\ONEDRIVE\UIT\@PROJECTS\CG-CS113\DRAWLINE\DEBUG\VC140.PDB
C:\USERS\XUXIC\ONEDRIVE\UIT\@PROJECTS\CG-CS113\DRAWLINE\DEBUG\VC140.IDB
C:\USERS\XUXIC\ONEDRIVE\UIT\@PROJECTS\CG-CS113\DRAWLINE\DEBUG\CLIPPING.OBJ
C:\USERS\XUXIC\ONEDRIVE\UIT\@PROJECTS\CG-CS113\DRAWLINE\DEBUG\MAIN.OBJ
^C:\USERS\XUXIC\ONEDRIVE\UIT\@PROJECTS\CG-CS113\DRAWLINE\FILLCOLOR.CPP
C:\USERS\XUXIC\ONEDRIVE\UIT\@PROJECTS\CG-CS113\DRAWLINE\DEBUG\VC140.PDB
C:\USERS\XUXIC\ONEDRIVE\UIT\@PROJECTS\CG-CS113\DRAWLINE\DEBUG\VC140.IDB
C:\USERS\XUXIC\ONEDRIVE\UIT\@PROJECTS\CG-CS113\DRAWLINE\DEBUG\FILLCOLOR.OBJ
^C:\USERS\XUXIC\ONEDRIVE\UIT\@PROJECTS\CG-CS113\DRAWLINE\FILLCOLOR.CPP|C:\USERS\XUXIC\ONEDRIVE\UIT\@PROJECTS\CG-CS113\DRAWLINE\MAIN.CPP
C:\USERS\XUXIC\ONEDRIVE\UIT\@PROJECTS\CG-CS113\DRAWLINE\DEBUG\VC140.PDB
C:\USERS\XUXIC\ONEDRIVE\UIT\@PROJECTS\CG-CS113\DRAWLINE\DEBUG\VC140.IDB
C:\USERS\XUXIC\ONEDRIVE\UIT\@PROJECTS\CG-CS113\DRAWLINE\DEBUG\MAIN.OBJ
C:\USERS\XUXIC\ONEDRIVE\UIT\@PROJECTS\CG-CS113\DRAWLINE\DEBUG\FILLCOLOR.OBJ
^C:\USERS\XUXIC\ONEDRIVE\UIT\@PROJECTS\CG-CS113\DRAWLINE\BEZIER.CPP|C:\USERS\XUXIC\ONEDRIVE\UIT\@PROJECTS\CG-CS113\DRAWLINE\CIRCLE.CPP|C:\USERS\XUXIC\ONEDRIVE\UIT\@PROJECTS\CG-CS113\DRAWLINE\ELLIPSE.CPP|C:\USERS\XUXIC\ONEDRIVE\UIT\@PROJECTS\CG-CS113\DRAWLINE\LINE.CPP|C:\USERS\XUXIC\ONEDRIVE\UIT\@PROJECTS\CG-CS113\DRAWLINE\MAIN.CPP|C:\USERS\XUXIC\ONEDRIVE\UIT\@PROJECTS\CG-CS113\DRAWLINE\PARABOL.CPP
C:\USERS\XUXIC\ONEDRIVE\UIT\@PROJECTS\CG-CS113\DRAWLINE\DEBUG\VC140.PDB
C:\USERS\XUXIC\ONEDRIVE\UIT\@PROJECTS\CG-CS113\DRAWLINE\DEBUG\VC140.IDB
C:\USERS\XUXIC\ONEDRIVE\UIT\@PROJECTS\CG-CS113\DRAWLINE\DEBUG\BEZIER.OBJ
C:\USERS\XUXIC\ONEDRIVE\UIT\@PROJECTS\CG-CS113\DRAWLINE\DEBUG\MAIN.OBJ
^C:\USERS\XUXIC\ONEDRIVE\UIT\@PROJECTS\CG-CS113\DRAWLINE\BEZIER.CPP
C:\USERS\XUXIC\ONEDRIVE\UIT\@PROJECTS\CG-CS113\DRAWLINE\DEBUG\VC140.PDB
C:\USERS\XUXIC\ONEDRIVE\UIT\@PROJECTS\CG-CS113\DRAWLINE\DEBUG\VC140.IDB
C:\USERS\XUXIC\ONEDRIVE\UIT\@PROJECTS\CG-CS113\DRAWLINE\DEBUG\BEZIER.OBJ
^C:\USERS\XUXIC\ONEDRIVE\UIT\@PROJECTS\CG-CS113\DRAWLINE\BEZIER.CPP|C:\USERS\XUXIC\ONEDRIVE\UIT\@PROJECTS\CG-CS113\DRAWLINE\MAIN.CPP
C:\USERS\XUXIC\ONEDRIVE\UIT\@PROJECTS\CG-CS113\DRAWLINE\DEBUG\VC140.PDB
C:\USERS\XUXIC\ONEDRIVE\UIT\@PROJECTS\CG-CS113\DRAWLINE\DEBUG\VC140.IDB
C:\USERS\XUXIC\ONEDRIVE\UIT\@PROJECTS\CG-CS113\DRAWLINE\DEBUG\MAIN.OBJ
C:\USERS\XUXIC\ONEDRIVE\UIT\@PROJECTS\CG-CS113\DRAWLINE\DEBUG\BEZIER.OBJ
