^C:\USERS\XUXIC\ONEDRIVE\UIT\@PROJECTS\CG-CS113\DRAWLINE\DEBUG\BEZIER.OBJ|C:\USERS\XUXIC\ONEDRIVE\UIT\@PROJECTS\CG-CS113\DRAWLINE\DEBUG\CIRCLE.OBJ|C:\USERS\XUXIC\ONEDRIVE\UIT\@PROJECTS\CG-CS113\DRAWLINE\DEBUG\CLIPPING.OBJ|C:\USERS\XUXIC\ONEDRIVE\UIT\@PROJECTS\CG-CS113\DRAWLINE\DEBUG\DRAWPOLYGON.OBJ|C:\USERS\XUXIC\ONEDRIVE\UIT\@PROJECTS\CG-CS113\DRAWLINE\DEBUG\ELLIPSE.OBJ|C:\USERS\XUXIC\ONEDRIVE\UIT\@PROJECTS\CG-CS113\DRAWLINE\DEBUG\FILLCOLOR.OBJ|C:\USERS\XUXIC\ONEDRIVE\UIT\@PROJECTS\CG-CS113\DRAWLINE\DEBUG\LINE.OBJ|C:\USERS\XUXIC\ONEDRIVE\UIT\@PROJECTS\CG-CS113\DRAWLINE\DEBUG\MAIN.OBJ|C:\USERS\XUXIC\ONEDRIVE\UIT\@PROJECTS\CG-CS113\DRAWLINE\DEBUG\PARABOL.OBJ|C:\USERS\XUXIC\ONEDRIVE\UIT\@PROJECTS\CG-CS113\DRAWLINE\DEBUG\SDL.RES
C:\USERS\XUXIC\ONEDRIVE\UIT\@PROJECTS\CG-CS113\DEBUG\SDL.ILK
C:\USERS\XUXIC\ONEDRIVE\UIT\@PROJECTS\CG-CS113\DEBUG\SDL.EXE
C:\USERS\XUXIC\ONEDRIVE\UIT\@PROJECTS\CG-CS113\DEBUG\SDL.PDB
