^C:\USERS\XUXIC\ONEDRIVE\PROJECT\CG-CS113\DRAWLINE\SDL.RC
/l"0x0409" /nologo /fo"DEBUG\SDL.RES"   C:\USERS\XUXIC\ONEDRIVE\PROJECT\CG-CS113\DRAWLINE\SDL.RC
^C:\USERS\XUXIC\ONEDRIVE\UIT\@PROJECTS\CG-CS113\DRAWLINE\SDL.RC
/l"0x0409" /nologo /fo"DEBUG\SDL.RES"   C:\USERS\XUXIC\ONEDRIVE\UIT\@PROJECTS\CG-CS113\DRAWLINE\SDL.RC
